TABLE obj
obj.id,obj.snaim,obj.naim,obj.address,obj.ready
1,NZiF,Отдельный счётчик,Корпус 35,False
2,Moxy,Счётчики на стене,Стена у Южука,True


TABLE bus
bus.id,bus.obj_id,bus.snaim,bus.naim,bus.host,bus.port,bus.timeout,bus.ready
1,1,qwork,Pack1,94.240.112.77,65000,10,False
2,1,qrept,Pack2,94.240.112.77,65001,10,False
3,2,AllMoxy,NoPackAll,213.177.97.70,4001,10,False
4,2,PwrMoxy,NoPackPwr,213.177.97.70,4001,10,True


TABLE krp
krp.id,krp.obj_id,krp.snaim,krp.naim,krp.lim
1,1,Korp26,Корпус № 26,580.00
2,1,Korp33,Корпус № 33,20.00
3,1,Korp14,Корпус № 14,25.00
4,1,Korp24,Корпус № 24,8.00
5,1,Korp16,Корпус № 16,315.00
6,1,Korp01,Корпус № 01,75.00
7,1,Korp02,Корпус № 02,25.00
8,1,Korp03,Корпус № 03,50.00
9,1,Korp04,Корпус № 04,285.00
10,1,Korp35,Корпус № 35,30.00
11,1,Korp29,Корпус № 29,10.00
12,1,Other,Прочие, не вошедшие в корпуса,30.00


TABLE pdr
pdr.id,pdr.obj_id,pdr.snaim,pdr.naim,pdr.lim
1,1,Cex02,Цех радиоизмерительной аппаратуры № 2,35.00
2,1,Cex07,Намоточный цех № 7,40.00
3,1,Cex15,Цех изделий производственно-технического назначения № 15,40.00
4,1,ElKo,ООО Электронные компоненты-НН,140.00
5,1,ETP,ООО ЭнергоТехПласт,250.00
6,1,Micronic,ООО Микроник,75.00
7,1,NNIIRT,Нижегородский научно-исследовательский институт радиотехники,100.00
8,1,InstrPlus,ООО Инструмент-Плюс,75.00
9,1,OkiK,Отдел комплектации и кооперации,30.00
10,1,LTI,Лаборатория технических измерений,7.00
11,1,Cex27,Цех микроэлектроники № 27,20.00
12,1,OGT,Отдел главного технолога,5.00
13,1,OTD,Отдел технической документации,15.00
14,1,EMO,Энергомеханический отдел,150.00
15,1,Kotelnaya,Котельная,495.00
16,1,OchistSoor,Очистные сооружения,20.00
17,1,Remstroi,ООО РемСтрой-НН,25.00
18,1,Vodooborot,Водооборот,45.00
19,1,Kompr,Компрессоры,120.00
20,1,Cex06,Механический цех № 6,140.00
21,1,Cex12,Цех покрытий №12,130.00
22,1,Mitino,Промплощадка Митино,10.00
23,1,Komplex,ООО СТК-Комплекс,45.00
24,1,Bayazet,ООО Баязет,10.00
25,1,Ignatiev,ИП Игнатьев,50.00
26,1,VVIK,Волго-Вятская инвестиционная корпорация,15.00
27,1,Other,Прочие, не вошедшие в подразделения,30.00


TABLE lgh
lgh.id,lgh.obj_id,lgh.snaim,lgh.naim,lgh.lim
1,1,Sila,На силовое оборудование,10.00
2,1,Svet,На освещение,5.00
3,1,Sila+Svet,На силовое оборудование и освещение,1.00


TABLE sht
sht.id,sht.obj_id,sht.bus_id,sht.krp_id,sht.pdr_id,sht.lgh_id,sht.addr,sht.ready
1,1,1,3,8,1,09,True
2,1,2,7,6,2,09,True
3,2,3,5,10,1,01,True
4,2,3,7,18,2,02,True
5,2,3,10,7,1,03,True
6,2,3,9,9,1,04,True
7,2,3,7,25,1,05,True
8,2,3,10,24,2,06,True
9,2,3,6,18,1,07,True
10,2,3,11,12,1,08,True
11,2,3,3,27,1,09,True
12,2,3,7,26,1,0a,True
13,2,3,6,8,1,0b,True
14,2,3,11,16,3,0c,True
15,2,3,1,22,1,0d,True
16,2,3,7,19,1,0e,True
17,2,3,3,15,3,0f,True
18,2,3,3,16,1,10,True
19,2,4,7,24,1,01,False
20,2,4,6,24,2,02,True
21,2,4,8,16,1,03,True
22,2,4,2,17,1,04,True
23,2,4,5,1,1,05,True
24,2,4,5,19,1,06,True
25,2,4,10,8,2,07,True
26,2,4,4,15,1,09,False
27,2,4,2,19,1,0b,False
28,2,4,8,8,1,0f,True
29,2,4,11,13,3,10,True


TABLE cdz
cdz.id,cdz.codz,cdz.naim
1,00,Проверить доступ к счётчику
2,01,Открыть доступ к счётчику
3,02,Закрыть доступ к счётчику
4,03,Установить
5,04,Прочитать из журнала событий
6,05,Прочитать энергию
7,06,Прочитать по адресу
8,07,Записать по адресу
9,08,Прочитать
10,09,Расш. прочитать из журнала
11,0a,Расш. прочитать энергию
12,0c,Расш. прочитать по адресу


TABLE cdp
cdp.id,cdp.codz,cdp.codp,cdp.cdz_id,cdp.naim
1,00,,1,
2,01,1X,2,c паролем 1-го (потребительского) уровня
3,01,2X,2,с паролем 2-го (хозяйского) уровня
4,01,3X,2,с паролем 3-го (заводского) уровня
5,02,,3,
6,03,00,4,время интегрирования мощности 
7,03,05,4,сетевой адрес
8,03,06,4,режимы и маски индикации
9,03,07,4,период индикации
10,03,08,4,данные ВРИ 
11,03,0b,4,изменение времени в пределах +/- 2 мин. один раз в сутки
12,03,0c,4,время
13,03,0d,4,изменение времени в пределах +/- 2 мин. один раз в сутки 
14,03,15,4,скорость обмена через интерфейс RS-485
15,03,18,4,программируемые флаги
16,03,19,4,время перехода на летнее время
17,03,1a,4,время перехода на зимнее время
18,03,1b,4,коэффициент трансформации по напряжению Кн
19,03,1c,4,коэффициент трансформации по току Кт
20,03,1d,4,текущий коэффициент трансформации (целая часть)
21,03,1e,4,текущий коэффициент трансформации (дробная часть)
22,03,1f,4,пароли 1-го и 2-го уровней доступа
23,03,20,4,cброс регистров накопленной энергии
24,03,21,4,КС тарифного расписания
25,03,22,4,наименование точки учета
26,03,26,4,параметры ИКЭ
27,03,27,4,множитель к таймауту ожидания окончания фрейма
28,03,28,4,адрес часового заголовка
29,03,2a,4,расписание утренних и вечерних максимумов мощности
30,03,2b,4,чистка массива ПМ
31,03,2c,4,испытательные выходы и цифровые входы 
32,03,2d,4,параметры измерителя потерь
33,03,2e,4,резерв для коммуникатора и PLC-модема 
34,03,2f,4,параметры управления нагрузкой, предоплаты, лимитов энергии и мощности 
35,03,30,4,константа эксплуатационной коррекции точности хода часов
36,03,31,4,число периодов усреднения для ВРИ
37,03,32,4,идентификатор устройства
38,03,33,4,расписание автоматического включения/выключения нагрузки
39,03,34,4,резерв 
40,03,35,4,тестирование узлов и функций счетчика
41,03,36,4,резерв для RF-модема
42,03,37,4,резер для записи тарифного расписания по тарифным зонам
43,03,38,4,разбиение памяти профиля мощности на массивы
44,03,39,4,параметры расширенного массива ПМ
45,03,3a,4,поиск адреса заголовка расширенного массива ПМ
46,04,0X,5,текущее время счетчика
47,04,1X,5,время выключения/включения счетчика
48,04,2X,5,время коррекции времени и даты
49,04,3X,5,время коррекции расписания праздничных дней
50,04,4X,5,время коррекции тарифного расписания
51,04,5X,5,время сброса показаний энергии
52,04,6X,5,время инициализации базового массива ПМ
53,04,7X,5,время выключения/включения фазы 1
54,04,8X,5,время выключения/включения фазы 2
55,04,9X,5,время выключения/включения фазы 3
56,04,aX,5,время открытия/закрытия защитной крышки
57,04,bX,5,время выхода/возврата за ВГ НДЗ F сети
58,04,cX,5,время выхода/возврата за НГ НДЗ F сети
59,04,dX,5,время выхода/возврата за ВГ НДЗ U1
60,04,eX,5,время выхода/возврата за НГ НДЗ U1
61,04,fX,5,время выхода/возврата за ВГ НДЗ U2
62,05,0X,6,от сброса до текущего момента
63,05,1X,6,за текущий год
64,05,2X,6,за прошлый год
65,05,3X,6,за текущий или один из 12-ти предыдущих месяцев
66,05,4X,6,за текущие сутки
67,05,5X,6,за предыдущие сутки
68,06,02,7,расписание или список перенесенных дней 
69,06,03,7,данные из массива ПМ1
70,06,08,7,данные из массива ПМ2
71,06,09,7,данные из массива ПМ3
72,07,02,8,расписание или список перенесенных дней
73,08,00,9,параметры выпуска
74,08,01,9,температуру внутри счётчика
75,08,02,9,коэффициенты трансформации
76,08,03,9,параметры ПО
77,08,04,9,параметры среза
78,08,05,9,сетевой адрес
79,08,06,9,время интегрирования мощности
80,08,07,9,параметры перехода на летнее время
81,08,08,9,параметры перехода на зимнее время
82,08,09,9,программируемые флаги
83,08,0a,9,слово состояния счётчика
84,08,0b,9,наименование точки учета
85,08,0c,9,текущие значения мощностей
86,08,0d,9,энергию по ТТ от его включения до текущего момента
87,08,0e,9,указатель текущего тарифа
88,08,0f,9,частоту сети
89,08,10,9,мгновенную мощность в формате СЭТ-4ТМ.01
90,08,11,9,данные ВРИ
91,08,12,9,вариант исполнения счетчика 
92,08,13,9,состояние устройства индикации
93,08,14,9,зафиксированные данные ВРИ
94,08,15,9,параметры ИКЭ и установленные пороги мощности
95,08,16,9,групповые данные ВРИ
96,08,17,9,множитель к таймауту ожидания окончания фрейма
97,08,18,9,слово состояния задачи
98,08,19,9,время последнего перепрограммирования счётчика
99,08,1a,9,маски режимов индикации
100,08,1b,9,в формате с плавающей точкой
101,08,1d,9,конфигурацию испытательных выходов
102,08,1e,9,параметры измерителя потерь
103,08,1f,9,резерв для коммуникаторов и PLC-модемов
104,08,1с,9,расписание и значения утренних и вечерних максимумов мощности, расписание автоматического включения/выключения нагрузки
105,08,20,9,параметры управления нагрузкой, предоплаты, лимитов энергии и мощности
106,08,21,9,константу эксплуатационной коррекции точности хода часов
107,08,22,9,число периодов усреднения для ВРИ 
108,08,23,9,данные ВРИ по бинарной маске в формате с плавающей точкой
109,08,24,9,описание счетчика 
110,08,25,9,пароли счетчика
111,08,26,9,массив индикации с предварительным управлением
112,08,27,9,резерв для RF-модема
113,08,28,9,текущее разбиение памяти профиля на массивы, конфигурация массива профиля, указатель расширенного массива профиля,
текущие значения профилируемых параметров
114,08,29,9,статистические таблицы провалов напряжений и перенапряжений
115,09,00,10,текущее время счетчика
116,09,01,10,время выключения/включения счетчика
117,09,02,10,время коррекции времени и даты
118,09,03,10,время коррекции расписания праздничных дней
119,09,04,10,время коррекции тарифного расписания
120,09,05,10,время сброса показаний энергии
121,09,06,10,время инициализации базового массива ПМ
122,09,07,10,время выключения/включения фазы 1
123,09,08,10,время выключения/включения фазы 2
124,09,09,10,время выключения/включения фазы 3
125,09,0a,10,время открытия/закрытия защитной крышки контактной колодки
126,09,0b,10,время выхода/возврата за ВГ НДЗ F сети
127,09,0d,10,время выхода/возврата за ВГ НДЗ U1
128,09,0e,10,время выхода/возврата за НГ НДЗ U1
129,09,0f,10,время выхода/возврата за ВГ НДЗ U2
130,09,0с,10,время выхода/возврата за НГ НДЗ F сети
131,09,10,10,время выхода/возврата за НГ НДЗ U2
132,09,11,10,время выхода/возврата за ВГ НДЗ U3
133,09,12,10,время выхода/возврата за НГ НДЗ U3
134,09,13,10,время выхода/возврата за ВГ ПДЗ F сети
135,09,14,10,время выхода/возврата за НГ ПДЗ F сети
136,09,15,10,время выхода/возврата за ВГ ПДЗ U1
137,09,16,10,время выхода/возврата за НГ ПДЗ U1
138,09,17,10,время выхода/возврата за ВГ ПДЗ U2
139,09,18,10,время выхода/возврата за НГ ПДЗ U2
140,09,19,10,время выхода/возврата за ВГ ПДЗ U3
141,09,1a,10,время выхода/возврата за НГ ПДЗ U3
142,09,1b,10,время выхода/возврата за ВГ ПДЗ U12
143,09,1c,10,время выхода/возврата за ВГ НДЗ U12
144,09,1d,10,время выхода/возврата за НГ НДЗ U12
145,09,1e,10,время выхода/возврата за НГ ПДЗ U12
146,09,1f,10,время выхода/возврата за ВГ ПДЗ U23
147,09,20,10,время выхода/возврата за ВГ НДЗ U23
148,09,21,10,время выхода/возврата за НГ НДЗ U23
149,09,22,10,время выхода/возврата за НГ ПДЗ U23
150,09,23,10,время выхода/возврата за ВГ ПДЗ U31
151,09,24,10,время выхода/возврата за ВГ НДЗ U31
152,09,25,10,время выхода/возврата за НГ НДЗ U31
153,09,26,10,время выхода/возврата за НГ ПДЗ U31
154,09,27,10,время выхода/возврата за Г ПДЗ Kisk U1
155,09,28,10,время выхода/возврата за Г НДЗ Kisk U1
156,09,29,10,время выхода/возврата за Г ПДЗ Kisk U2
157,09,2a,10,время выхода/возврата за Г НДЗ Kisk U2
158,09,2b,10,время выхода/возврата за Г ПДЗ Kisk U3
159,09,2c,10,время выхода/возврата за Г НДЗ Kisk U3
160,09,2d,10,время выхода/возврата за Г ПДЗ Kisk U12
161,09,2e,10,время выхода/возврата за Г НДЗ Kisk U12
162,09,2f,10,время выхода/возврата за Г ПДЗ Kisk U23
163,09,30,10,время выхода/возврата за Г НДЗ Kisk U23
164,09,31,10,время выхода/возврата Г ПДЗ Kisk U31
165,09,32,10,время выхода/возврата за Г НДЗ Kisk U31
166,09,33,10,время выхода/возврата за Г ПДЗ K0u
167,09,34,10,время выхода/возврата за Г НДЗ K0u
168,09,35,10,время выхода/возврата за Г ПДЗ K2u
169,09,36,10,время выхода/возврата за Г НДЗ K2u
170,09,37,10,время выхода/возврата за ВГ ПДЗ U1(1)
171,09,38,10,время выхода/возврата за ВГ НДЗ U1(1)
172,09,39,10,время выхода/возврата за НГ НДЗ U1(1)
173,09,3a,10,время выхода/возврата за НГ ПДЗ U1(1)
174,09,3b,10,время выхода/возврата среднего значения P+ за установленный порог
175,09,3c,10,статус
176,09,3d,10,время инициализации массива ПМ2
177,09,3e,10,время коррекции списка перенесенных дней
178,09,3f,10,время коррекции расписания утренних и вечерних максимумов мощности
179,09,40,10,время сброса максимумов мощности по массиву ПМ1 
180,09,41,10,время сброса максимумов мощности по массиву ПМ2
181,09,42,10,время выхода/возврата среднего значения P- за установленный порог
182,09,43,10,время выхода/возврата среднего значения Q+ за установленный порог
183,09,44,10,время выхода/возврата среднего значения Q- за установленный порог
184,09,45,10,время перехода на резервное питание
185,09,46,10,несанкционированный доступ к счетчику
186,09,47,10,перепрограммирование счетчика
187,09,48,10,управление  нагрузкой
188,09,49,10,начисление единиц оплаты
189,09,4a,10,считывание показаний
190,09,4b,10,время инициализации массива ПМ3 (только для СЭТ-4ТМ.03М)
191,09,4c,10,изменение состояния входов телесигнализации (только для СЭТ-4ТМ.03М,  ПСЧ-3ТМ.05М, ПСЧ-4ТМ.05М,МК,МД)
192,09,4d,10,время сброса максимумов мощности по массиву ПМ3 (только для СЭТ-4ТМ.03М)
193,09,4e,10,изменения коэффициентов трансформации
194,09,4f,10,изменения параметров измерителя качества электричества
195,09,50,10,инициализация счетчика
196,09,51,10,изменения параметров измерителя потерь
197,09,52,10,время открытия/закрытия защитной крышки интерфейсных цепей и батареи (только для СЭБ-1ТМ.02Д, ПСЧ-3,4ТМ.05Д)
198,09,53,10,вскрытия счетчика (ПСЧ-4ТМ.05МК,  СЭБ-1ТМ.02М)
199,09,54,10,время коррекции расписания управления нагрузкой (ПСЧ-4ТМ.05МК, СЭБ-1ТМ.02М)
200,09,55,10,расширенный статус (только в  ПСЧ-4ТМ.05МК,МД, СЭБ-1ТМ.02М)
201,09,56,10,воздействия повышенной магнитной индукции (только ПСЧ-4ТМ.05МД)
202,09,57,10,провалов и перенапряжений в 3-х фазной системе
203,09,58,10,провалов и перенапряжений в фазе 1
204,09,59,10,провалов и перенапряжений в фазе 2
205,09,5a,10,провалов и перенапряжений в фазе 3
206,09,5b,10,очистка статистической таблицы провалов и перенапряжений в 3-х фазной системе
207,09,5c,10,очистка статистической таблицы провалов и перенапряжений в фазе 1
208,09,5d,10,очистка статистической таблицы провалов и перенапряжений в фазе 2
209,09,5e,10,очистка статистической таблицы провалов и перенапряжений в фазе 3
210,0a,00,11,от сброса до текущего момента 
211,0a,01,11,за текущий год
212,0a,02,11,за предыдущий год
213,0a,03,11,за текущий или за один из 12-ти предыдущих месяцев
214,0a,04,11,за текущие сутки
215,0a,05,11,за предыдущие сутки
216,0a,06,11,за текущие или за одни из 30-ти предыдущих суток
217,0a,10,11,от сброса до текущего момента активные потери в линии  
218,0a,81,11,от сброса до начала текущего года
219,0a,82,11,от сброса до начала предыдущего года
220,0a,83,11,от сброса до начала текущего или одного из 12-ти предыдущих месяцев
221,0a,84,11,от сброса до начала текущих суток
222,0a,85,11,от сброса до начала предыдущих суток
223,0a,86,11,от сброса до начала текущих или одних из 30-ти предыдущих суток
224,0a,ff,11,по ТТ от его включения до текущего момента 
225,0c,02,12,расписание или список перенесенных дней
226,0c,03,12,данные из массива ПМ1
227,0c,08,12,данные из массива ПМ2
228,0c,09,12,данные из массива ПМ3


TABLE par
par.id,par.codz,par.codp,par.par,par.cdz_id,par.cdp_id,par.snaim,par.naim,par.yb,par.ye,par.typ,par.col
1,03,18,00,4,15,20F,разрешение автоматического перехода на зимнее/летнее время,,,,
2,03,18,01,4,15,20T,запрет автоматического перехода на зимнее/летнее время,,,,
3,03,18,02,4,15,21T,разрешение на пометку недостоверных срезов в массиве ПМ,,,,
4,03,18,03,4,15,21F,запрет на пометку недостоверных срезов в массиве ПМ,,,,
5,03,18,04,4,15,22T,разрешение на восстановление прерванного режима индикации после включения питающего U (СЭТ-4ТМ.02 с V28.26.XX),,,,
6,03,18,05,4,15,22F,запрет на восстановление прерванного режима индикации после включения питающего U (СЭТ-4ТМ.02 с V28.26.XX),,,,
7,03,18,06,4,15,23F,разрешение на автоматическое закрытие первого (или единственного) канала связи RS-485 по таймеру с первым уровнем доступа (СЭТ-4ТМ.02 с V28.26.XX),,,,
8,03,18,07,4,15,23T,запрет на автоматическое закрытие первого (или единственного) канала связи RS-485 по таймеру с первым уровнем доступа (СЭТ-4ТМ.02 с V28.26.XX),,,,
9,03,18,08,4,15,24F,импульсные выходы в режим формирования сигналов телеметрии (СЭТ-4ТМ.02 с V29.27.XX),,,,
10,03,18,09,4,15,24T,25F,импульсные выходы в режим формирования сигналов индикации превышения программируемого порога P (СЭТ-4ТМ.02 с V29.27.XX),,,,
11,03,18,0a,4,15,24T,25T,импульсные выходы в режим запрета формирования сигналов индикации превышения порога P (блокировка индикации) независимо от P (СЭТ-4ТМ.02 с V29.27.XX),,,,
12,03,18,0b,4,15,26T,разрешение на однотарифный режим учета по тарифу 1 (независимо от тарифного расписания),,,,
13,03,18,0c,4,15,26F,разрешение на многотарифный режим учета,,,,
14,03,18,0d,4,15,27T,разрешение на ведение журналов ПКЭ по отклонению межфазных напряжений (только для ПСЧ-3,4ТМ.05М),,,,
15,03,18,0e,4,15,27F,разрешение на ведение журналов ПКЭ по отклонению фазных напряжений (только для ПСЧ-3,4ТМ.05М),,,,
16,03,18,0f,4,15,10F,разрешение на автоматическое закрытие второго канала связи RS-485 по таймеру с первым уровне доступа (только для  СЭТ-4ТМ.03),,,,
17,03,18,10,4,15,10T,запрет на автоматическое закрытие второго канала связи RS-485  по таймеру с первым уровнем доступа ,,,,
18,03,18,11,4,15,11T,разрешение на однонаправленный режим учета энергии (учет по модулю) (СЭТ-4ТМ.03, ПСЧ-4ТМ.05, ПСЧ-3ТМ.05),,,,
19,03,18,12,4,15,11F,разрешение на двунаправленный режим учета энергии (СЭТ-4ТМ.03, ПСЧ-4ТМ.05, ПСЧ-3ТМ.05),,,,
20,03,18,13,4,15,12F,порог чувствительности 1мА (СЭТ-4ТМ.03),,,,
21,03,18,14,4,15,12T,порог чувствительности 5мА (СЭТ-4ТМ.03) (устанавливается при подключении измерительных трансформаторов I с номинальным Iом 5 А) ,,,,
22,03,18,16,4,15,13F,запрет на коррекцию погрешности  измерительного тракта  (СЭТ-4ТМ.03 с V 02.30.30),,,,
23,03,18,17,4,15,14T,разрешение на использование массива ПМ1 для ведения профиля P с учетом потерь (только для СЭТ-4ТМ.03М,  ПСЧ-3ТМ.05М, ПСЧ-4ТМ.05М),,,,
24,03,18,18,4,15,14F,разрешение на использование массива ПМ1 для ведения профиля P нагрузки без учета потерь (только для  СЭТ-4ТМ.03М, ПСЧ-3ТМ.05М, ПСЧ-4ТМ.05М),,,,
25,03,18,19,4,15,15T,разрешение на использование массива ПМ2 для ведения профиля P с учетом потерь (только для СЭТ-4ТМ.03М,  ПСЧ-3ТМ.05М, ПСЧ-4ТМ.05М),,,,
26,03,18,1a,4,15,15F,разрешение на использование массива ПМ2 для ведения профиля P нагрузки без учета потерь (только для  СЭТ-4ТМ.03М, ПСЧ-3ТМ.05М, ПСЧ-4ТМ.05М),,,,
27,03,18,1b,4,15,16T,разрешение на использование массива ПМ3 для ведения профиля P с учетом потерь (только для СЭТ-4ТМ.03М),,,,
28,03,18,1c,4,15,16F,разрешение на использование массива ПМ3 для ведения профиля P нагрузки без учета потерь (только для  СЭТ-4ТМ.03М),,,,
29,03,18,1d,4,15,17T,разрешение на блокировку записи до конца суI при 3-х кратном обращении с неверным паролем 2-го уровня доступа (Белорусия),,,,
30,03,18,1e,4,15,17F,запрет на блокировку записи до конца суI при 3-х кратном обращении с неверным паролем 2-го уровня доступа,,,,
31,03,18,20,4,15,20T,разрешение на начало расчетного периода с заданного числа месяца,,,,
32,03,18,21,4,15,20F,запрет на начало расчетного периода с заданного числа (расчетный период  начинается с 1-го числа месяца),,,,
33,03,18,22,4,15,21F,22F,запрет на учет лимитов энергии ,,,,
34,03,18,23,4,15,21T,22F,разрешение на учет лимитов энергии по каждому тарифу,,,,
35,03,18,24,4,15,21F,22T,разрешение на учет лимитов энергии по сумме тарифов,,,,
36,03,18,25,4,15,23T,разрешение на режим предоплаты,,,,
37,03,18,26,4,15,23F,запрет на режим предоплаты,,,,
38,03,18,27,4,15,24F,25F,26F,запрет на ограничение энергии за сутки в режиме предоплаты,,,,
39,03,18,28,4,15,24F,25F,26T,разрешение на ограничение энергии за сутки всегда,,,,
40,03,18,29,4,15,24T,25F,26F,разрешение на ограничение энергии за сутки по окончанию оплаты ,,,,
41,03,18,2a,4,15,24F,25T,26F,разрешение на ограничение энергии за сутки по окончанию кредита,,,,
42,03,18,2b,4,15,10F,11F,12F,запрет на управление нагрузкой по всем критериям режима предоплаты ,,,,
43,03,18,2c,4,15,10T,11F,12F,разрешение на отключение нагрузки при превышении суточного лимита энергии в режиме предоплаты,,,,
44,03,18,2d,4,15,10F,11T,12F,разрешение на отключение нагрузки при окончании оплаченных единиц,,,,
45,03,18,2e,4,15,10F,11F,12T,разрешение на отключение нагрузки при окончании кредита,,,,
46,03,18,2f,4,15,13F,запрет на управление нагрузкой при перегреве счетчика,,,,
47,03,18,30,4,15,13T,разрешение на управление нагрузкой при перегреве счетчика,,,,
48,03,18,31,4,15,14F,запрет на управление нагрузкой при превышении лимита P,,,,
49,03,18,32,4,15,14T,разрешение на управление нагрузкой при превышении лимита P,,,,
50,03,18,33,4,15,15F,запрет на включение нагрузки, минуя нажатие кнопки (с V00.03.13),,,,
51,03,18,34,4,15,15T,разрешение на включение нагрузки, минуя нажатие кнопки (с V00.03.13),,,,
52,03,18,35,4,15,16F,запрет на управление нагрузкой по расписанию (с V00.03.13),,,,
53,03,18,36,4,15,16T,разрешение на управление нагрузкой по расписанию (с V00.03.13),,,,
54,03,18,37,4,15,17F,запрет на управление нагрузкой в режиме контроля U (с V00.03.14),,,,
55,03,18,38,4,15,17T,разрешение на управление нагрузкой в режиме контроля U (с V00.03.14),,,,
56,03,18,39,4,15,27F,запрет на управление нагрузкой при превышении суточного лимита энергии (с V00.03.14),,,,
57,03,18,3a,4,15,27T,разрешение на управление нагрузкой при превышении суточного лимита энергии (с V00.03.14),,,,
58,03,18,40,4,15,20T,запрет на коррекцию времени по оптопорту,,,,
59,03,18,41,4,15,20F,разрешение на коррекцию времени по оптопорту,,,,
60,03,18,42,4,15,21T,запрет на коррекцию времени по первому каналу RS-485,,,,
61,03,18,43,4,15,21F,разрешение на коррекцию времени по первому каналу RS-485,,,,
62,03,18,44,4,15,22T,запрет на коррекцию времени по второму каналу RS-485 (только для СЭТ-4ТМ.02,03М),,,,
63,03,18,45,4,15,22F,разрешение на коррекцию времени по второму каналу RS-485 (только для СЭТ-4ТМ.02,03М),,,,
64,03,18,46,4,15,23T,запрет на ручную коррекцию времени,,,,
65,03,18,47,4,15,23F,разрешение на ручную коррекцию времени,,,,
66,03,18,48,4,15,24T,запрет на ответ коротким адресом (только СЭБ-1ТМ.02, начиная с V00.03.14 и СЭБ-1ТМ.02Д, начиная с V00.00.03),,,,
67,03,18,49,4,15,24F,разрешение на ответ коротким адресом (только СЭБ-1ТМ.02, начиная с V00.03.14 и СЭБ-1ТМ.02Д, начиная с V00.00.03),,,,
68,03,18,4a,4,15,25T,2-й алгоритм формирования сигнала индикации превышения порога P (СЭТ-4ТМ.02,03М V03.11.30, ПСЧ-4ТМ.05М V33.00.08, ПСЧ-3ТМ.05М V53.00.08, ПСЧ-3,4ТМ05Д),,,,
69,03,18,4b,4,15,25F,1-й алгоритм формирования сигнала индикации превышения порога P (СЭТ-4ТМ.02,03М V03.11.30, ПСЧ-4ТМ.05М V33.00.08, ПСЧ-3ТМ.05М V53.00.08, ПСЧ-3,4ТМ05Д),,,,
70,03,18,4c,4,15,26T,разрешение на режим динамической индикации (ПСЧ-4ТМ.05МК),,,,
71,03,18,4d,4,15,26F,запрет на режим динамической индикации (ПСЧ-4ТМ.05МК),,,,
72,03,18,4e,4,15,27T,разрешение на переход в заданный режим индикации по таймеру неактивности кнопок управления (ПСЧ-4ТМ.05МК),,,,
73,03,18,4f,4,15,27F,запрет на переход в заданный режим индикации по таймеру неактивности кнопок управления (ПСЧ-4ТМ.05МК),,,,
74,03,18,50,4,15,10F,разрешение на управление нагрузкой при превышении суточного лимита энергии по сумме тарифов (ПСЧ-4ТМ.05МК),,,,
75,03,18,51,4,15,10T,разрешение на  управление нагрузкой при превышении суточного лимита энергии по каждому тарифу (ПСЧ-4ТМ.05МК),,,,
76,03,18,52,4,15,11F,запрет на  управление нагрузкой при превышении лимита энергии за расчетный период (ПСЧ-4ТМ.05МК),,,,
77,03,18,53,4,15,11T,разрешение на управление нагрузкой при превышении лимита энергии за расчетный период (ПСЧ-4ТМ.05МК),,,,
78,03,18,54,4,15,12F,разрешение на управление нагрузкой при превышении лимита энергии за расчетный период по сумме тарифов (ПСЧ-4ТМ.05МК),,,,
79,03,18,55,4,15,12T,разрешение на управление нагрузкой при превышении лимита энергии за расчетный период по каждому тарифу (ПСЧ-4ТМ.05МК),,,,
80,03,18,56,4,15,13F,запрет на пофазный учет энергии (ПСЧ-4ТМ.05МК),,,,
81,03,18,57,4,15,13T,разрешение на пофазный учет энергии (ПСЧ-4ТМ.05МК),,,,
82,03,18,58,4,15,14F,запрет на штрафной тариф (ПСЧ-4ТМ.05МК),,,,
83,03,18,59,4,15,14T,разрешение на штрафной тариф (ПСЧ-4ТМ.05МК),,,,
84,03,18,5a,4,15,15F,,,,,
85,03,18,5b,4,15,15T,,,,,
86,03,18,5c,4,15,16F,запрет на выдачу нулевого значения U ниже установленного порога,,,,
87,03,18,5d,4,15,16T,разрешение на выдачу нулевого значения U ниже установленного порога,,,,
88,03,28,00,4,28,,в массиве ПМ1,,,,
89,03,28,01,4,28,,в массиве ПМ2,,,,
90,03,28,02,4,28,,в массиве ПМ3,,,,
91,03,28,10,4,28,,в мл.адресх массива ПМ1,,,,
92,03,28,11,4,28,,в ст.адресх массива ПМ1,,,,
93,08,00,,9,73,,серийный номер,0,4,i,ser_num
94,08,00,,9,73,,дата выпуска,4,7,d,date_izg
95,08,01,,9,74,,температура,1,2,i,tmpr
96,08,02,,9,75,,по U,0,2,i,k_tr_u
97,08,02,,9,75,,по I,2,4,i,k_tr_i
98,08,02,,9,75,,ед.измерения,4,5,s,edi
99,08,02,,9,75,,текущий,5,10,n,k_tr_cur
100,08,03,,9,76,,версия ПО,0,3,p,ver_po
101,08,04,,9,77,,время начала из массива ПМ1,0,2,t1,time1
102,08,04,,9,77,,дата начала из массива ПМ1,2,5,d,date1
103,08,04,,9,77,,адрес из массива ПМ1,5,7,h,pntr1
104,08,04,00,9,77,,время начала из массива ПМ1,0,2,t1,time1
105,08,04,00,9,77,,дата начала из массива ПМ1,2,5,d,date1
106,08,04,00,9,77,,адрес из массива ПМ1,5,7,h,pntr1
107,08,04,01,9,77,,время начала из массива ПМ2,0,2,t1,time2
108,08,04,01,9,77,,дата начала из массива ПМ2,2,5,d,date2
109,08,04,01,9,77,,адрес из массива ПМ2,5,7,h,pntr2
110,08,04,02,9,77,,время начала из массива ПМ3,0,2,t1,time3
111,08,04,02,9,77,,дата начала из массива ПМ3,2,5,d,date3
112,08,04,02,9,77,,адрес из массива ПМ3,5,7,h,pntr3
113,08,05,,9,78,,короткий,1,2,h,addr
114,08,05,00,9,78,,короткий расширенно,1,2,h,addr
115,08,05,01,9,78,,длинный расширенно,0,5,h,l_addr
116,08,06,,9,79,,из массива ПМ1,1,2,i,ti1
117,08,06,00,9,79,,из массива ПМ1 расширенно,1,2,i,ti1
118,08,06,01,9,79,,из массива ПМ2 расширенно,1,2,i,ti2
119,08,06,02,9,79,,из массива ПМ3 расширенно,1,2,i,ti3
120,08,07,,9,80,,час,0,1,h,h_lv
121,08,07,,9,80,,месяц,2,3,h,d_lv
122,08,08,,9,81,,час,0,1,h,h_zv
123,08,08,,9,81,,месяц,2,3,h,d_zv
124,08,09,,9,82,,из массива ПФ0,,,,
125,08,09,00,9,82,,из массива ПФ0 расширенно,,,,
126,08,09,01,9,82,,из массива ПФ1 расширенно,,,,
127,08,09,02,9,82,,из массива ПФ2 расширенно,,,,
128,08,0b,,9,84,,наименование точки учёта,0,16,s,point
129,08,0c,,9,85,,для массива ПМ1,,,,
130,08,0c,00,9,85,,для массива ПМ1 расширенно,,,,
131,08,0c,01,9,85,,для массива ПМ2 расширенно,,,,
132,08,0c,02,9,85,,для массива ПМ3 расширенно,,,,
133,08,0e,,9,87,,время,0,2,t,t_tt
134,08,0e,,9,87,,дата,3,6,d,d_tt
135,08,0e,,9,87,,номер тарифа,6,7,i,n_tt
136,08,0f,,9,88,,частота сети,0,2,i,freq
137,08,11,00,9,90,PS,P активная по сумме фаз,,,,
138,08,11,01,9,90,P1,P активная по фазе 1,,,,
139,08,11,02,9,90,P2,P активная по фазе 2,,,,
140,08,11,03,9,90,P3,P активная по фазе 3,,,,
141,08,11,04,9,90,QS,P реактивная по сумме фаз,,,,
142,08,11,05,9,90,Q1,P реактивная по фазе 1,,,,
143,08,11,06,9,90,Q2,P реактивная по фазе 2,,,,
144,08,11,07,9,90,Q3,P реактивная по фазе 3,,,,
145,08,11,08,9,90,SS,P полная по сумме фаз,,,,
146,08,11,09,9,90,S1,P полная по фазе 1,,,,
147,08,11,0a,9,90,S2,P полная по фазе 2,,,,
148,08,11,0b,9,90,S3,P полная по фазе 3,,,,
149,08,11,10,9,90,Uf1,U фазное по фазе 1,,,,
150,08,11,11,9,90,Uf1,U фазное по фазе 1,,,,
151,08,11,12,9,90,Uf2,U фазное по фазе 2,,,,
152,08,11,13,9,90,Uf3,U фазное по фазе 3,,,,
153,08,11,14,9,90,Umf12,U межфазное 12,,,,
154,08,11,15,9,90,Umf12,U межфазное 12,,,,
155,08,11,16,9,90,Umf23,U межфазное 23,,,,
156,08,11,17,9,90,Umf31,U межфазное 31,,,,
157,08,11,18,9,90,U1(1),U ПП,,,,
158,08,11,19,9,90,U1(1),U ПП,,,,
159,08,11,1a,9,90,U1(1),U ПП,,,,
160,08,11,1b,9,90,U1(1),U ПП,,,,
161,08,11,1c,9,90,Ub,U встроенной батареи,,,,
162,08,11,1d,9,90,Ub,U встроенной батареи,,,,
163,08,11,1e,9,90,Ub,U встроенной батареи,,,,
164,08,11,1f,9,90,Ub,U встроенной батареи,,,,
165,08,11,20,9,90,I1,I по фазе 1,,,,
166,08,11,21,9,90,I1,I по фазе 1,,,,
167,08,11,22,9,90,I2,I по фазе 2,,,,
168,08,11,23,9,90,I3,I по фазе 3,,,,
169,08,11,24,9,90,Ki1,КИ СК I по фазе 1,,,,
170,08,11,25,9,90,Ki1,КИ СК I по фазе 1,,,,
171,08,11,26,9,90,Ki2,КИ СК I по фазе 2,,,,
172,08,11,27,9,90,Ki3,КИ СК I по фазе 3,,,,
173,08,11,28,9,90,K2i,КН I по ОП,,,,
174,08,11,29,9,90,K2i,КН I по ОП,,,,
175,08,11,2a,9,90,K2i,КН I по ОП,,,,
176,08,11,2b,9,90,K2i,КН I по ОП,,,,
177,08,11,2c,9,90,K0i,КН I по НП,,,,
178,08,11,2d,9,90,K0i,КН I по НП,,,,
179,08,11,2e,9,90,K0i,КН I по НП,,,,
180,08,11,2f,9,90,K0i,КН I по НП,,,,
181,08,11,30,9,90,CosFiS,К активной P по сумме фаз,,,,
182,08,11,31,9,90,CosFi1,К активной P по фазе 1,,,,
183,08,11,32,9,90,CosFi2,К активной P по фазе 2,,,,
184,08,11,33,9,90,CosFi3,К активной P по фазе 3,,,,
185,08,11,40,9,90,F,F сети,,,,
186,08,11,41,9,90,F,F сети,,,,
187,08,11,42,9,90,F,F сети,,,,
188,08,11,43,9,90,F,F сети,,,,
189,08,11,80,9,90,KUf1,КИ СК фазного U по фазе 1,,,,
190,08,11,81,9,90,KUf1,КИ СК фазного U по фазе 1,,,,
191,08,11,82,9,90,KUf2,КИ СК фазного U по фазе 2,,,,
192,08,11,83,9,90,KUf3,КИ СК фазного U по фазе 3,,,,
193,08,11,84,9,90,KUmf12,КИ СК межфазного U 12,,,,
194,08,11,85,9,90,KUmf12,КИ СК межфазного U 12,,,,
195,08,11,86,9,90,KUmf23,КИ СК межфазного U 23,,,,
196,08,11,87,9,90,KUmf31,КИ СК межфазного U 31,,,,
197,08,11,88,9,90,K2U,КН U по ОП,,,,
198,08,11,89,9,90,K2U,КН U по ОП,,,,
199,08,11,8a,9,90,K2U,КН U по ОП,,,,
200,08,11,8b,9,90,K2U,КН U по ОП,,,,
201,08,11,8c,9,90,K0U,КН U по НП,,,,
202,08,11,8d,9,90,K0U,КН U по НП,,,,
203,08,11,8e,9,90,K0U,КН U по НП,,,,
204,08,11,8f,9,90,K0U,КН U по НП,,,,
205,08,11,90,9,90,Fu,УЗ частоты,,,,
206,08,11,91,9,90,Fu,УЗ частоты,,,,
207,08,11,92,9,90,Fu,УЗ частоты,,,,
208,08,11,93,9,90,Fu,УЗ частоты,,,,
209,08,11,a0,9,90,Ufu1,УЗ фазного U по фазе 1,,,,
210,08,11,a1,9,90,Ufu1,УЗ фазного U по фазе 1,,,,
211,08,11,a2,9,90,Ufu2,УЗ фазного U по фазе 2,,,,
212,08,11,a3,9,90,Ufu3,УЗ фазного U по фазе 3,,,,
213,08,11,a4,9,90,Umfu1,УЗ межфазного U по фазе 1,,,,
214,08,11,a5,9,90,Umfu1,УЗ межфазного U по фазе 1,,,,
215,08,11,a6,9,90,Umfu2,УЗ межфазного U по фазе 2,,,,
216,08,11,a7,9,90,Umfu3,УЗ межфазного U по фазе 3,,,,
217,08,11,a8,9,90,U1(1)u,УЗ U ПП,,,,
218,08,11,a9,9,90,U1(1)u,УЗ U ПП,,,,
219,08,11,aa,9,90,U1(1)u,УЗ U ПП,,,,
220,08,11,ab,9,90,U1(1)u,УЗ U ПП,,,,
221,08,11,b0,9,90,KUfu1,УЗ КИ СК фазного U по фазе 1,,,,
222,08,11,b1,9,90,KUfu1,УЗ КИ СК фазного U по фазе 1,,,,
223,08,11,b2,9,90,KUfu2,УЗ КИ СК фазного U по фазе 2,,,,
224,08,11,b3,9,90,KUfu3,УЗ КИ СК фазного U по фазе 3,,,,
225,08,11,b4,9,90,KUmfu12,УЗ КИ СК межфазного U 12,,,,
226,08,11,b5,9,90,KUmfu12,УЗ КИ СК межфазного U 12,,,,
227,08,11,b6,9,90,KUmfu23,УЗ КИ СК межфазного U 23,,,,
228,08,11,b7,9,90,KUmfu31,УЗ КИ СК межфазного U 31,,,,
229,08,11,b8,9,90,К2Uu,УЗ КН U по ОП,,,,
230,08,11,b9,9,90,К2Uu,УЗ КН U по ОП,,,,
231,08,11,ba,9,90,К2Uu,УЗ КН U по ОП,,,,
232,08,11,bb,9,90,К2Uu,УЗ КН U по ОП,,,,
233,08,11,bc,9,90,K0Uu,УЗ КН U по НП,,,,
234,08,11,bd,9,90,K0Uu,УЗ КН U по НП,,,,
235,08,11,be,9,90,K0Uu,УЗ КН U по НП,,,,
236,08,11,bf,9,90,K0Uu,УЗ КН U по НП,,,,
237,08,11,e0,9,90,PpS,P активных потерь в линии электропередачи и силовом трансформаторе по сумме фаз,,,,
238,08,11,e1,9,90,Pp1,P активных потерь в линии электропередачи и силовом трансформаторе по фазе 1,,,,
239,08,11,e2,9,90,Pp2,P активных потерь в линии электропередачи и силовом трансформаторе по фазе 2,,,,
240,08,11,e3,9,90,Pp3,P активных потерь в линии электропередачи и силовом трансформаторе по фазе 3,,,,
241,08,11,e4,9,90,QpS,P реактивных потерь в линии электропередачи и силовом трансформаторе по сумме фаз,,,,
242,08,11,e5,9,90,Qp1,P реактивных потерь в линии электропередачи и силовом трансформаторе по фазе 1,,,,
243,08,11,e6,9,90,Qp2,P реактивных потерь в линии электропередачи и силовом трансформаторе по фазе 2,,,,
244,08,11,e7,9,90,Qp3,P реактивных потерь в линии электропередачи и силовом трансформаторе по фазе 3,,,,
245,08,14,00,9,93,PS,P активная по сумме фаз,,,,
246,08,14,01,9,93,P1,P активная по фазе 1,,,,
247,08,14,02,9,93,P2,P активная по фазе 2,,,,
248,08,14,03,9,93,P3,P активная по фазе 3,,,,
249,08,14,04,9,93,QS,P реактивная по сумме фаз,,,,
250,08,14,05,9,93,Q1,P реактивная по фазе 1,,,,
251,08,14,06,9,93,Q2,P реактивная по фазе 2,,,,
252,08,14,07,9,93,Q3,P реактивная по фазе 3,,,,
253,08,14,08,9,93,SS,P полная по сумме фаз,,,,
254,08,14,09,9,93,S1,P полная по фазе 1,,,,
255,08,14,0a,9,93,S2,P полная по фазе 2,,,,
256,08,14,0b,9,93,S3,P полная по фазе 3,,,,
257,08,14,10,9,93,Uf1,U фазное по фазе 1,,,,
258,08,14,11,9,93,Uf1,U фазное по фазе 1,,,,
259,08,14,12,9,93,Uf2,U фазное по фазе 2,,,,
260,08,14,13,9,93,Uf3,U фазное по фазе 3,,,,
261,08,14,14,9,93,Umf12,U межфазное 12,,,,
262,08,14,15,9,93,Umf12,U межфазное 12,,,,
263,08,14,16,9,93,Umf23,U межфазное 23,,,,
264,08,14,17,9,93,Umf31,U межфазное 31,,,,
265,08,14,18,9,93,U1(1),U ПП,,,,
266,08,14,19,9,93,U1(1),U ПП,,,,
267,08,14,1a,9,93,U1(1),U ПП,,,,
268,08,14,1b,9,93,U1(1),U ПП,,,,
269,08,14,1c,9,93,Ub,U встроенной батареи,,,,
270,08,14,1d,9,93,Ub,U встроенной батареи,,,,
271,08,14,1e,9,93,Ub,U встроенной батареи,,,,
272,08,14,1f,9,93,Ub,U встроенной батареи,,,,
273,08,14,20,9,93,I1,I по фазе 1,,,,
274,08,14,21,9,93,I1,I по фазе 1,,,,
275,08,14,22,9,93,I2,I по фазе 2,,,,
276,08,14,23,9,93,I3,I по фазе 3,,,,
277,08,14,24,9,93,Ki1,КИ СК I по фазе 1,,,,
278,08,14,25,9,93,Ki1,КИ СК I по фазе 1,,,,
279,08,14,26,9,93,Ki2,КИ СК I по фазе 2,,,,
280,08,14,27,9,93,Ki3,КИ СК I по фазе 3,,,,
281,08,14,28,9,93,K2i,КН I по ОП,,,,
282,08,14,29,9,93,K2i,КН I по ОП,,,,
283,08,14,2a,9,93,K2i,КН I по ОП,,,,
284,08,14,2b,9,93,K2i,КН I по ОП,,,,
285,08,14,2c,9,93,K0i,КН I по НП,,,,
286,08,14,2d,9,93,K0i,КН I по НП,,,,
287,08,14,2e,9,93,K0i,КН I по НП,,,,
288,08,14,2f,9,93,K0i,КН I по НП,,,,
289,08,14,30,9,93,CosFiS,К активной P по сумме фаз,,,,
290,08,14,31,9,93,CosFi1,К активной P по фазе 1,,,,
291,08,14,32,9,93,CosFi2,К активной P по фазе 2,,,,
292,08,14,33,9,93,CosFi3,К активной P по фазе 3,,,,
293,08,14,40,9,93,F,F сети,,,,
294,08,14,41,9,93,F,F сети,,,,
295,08,14,42,9,93,F,F сети,,,,
296,08,14,43,9,93,F,F сети,,,,
297,08,14,50,9,93,Tf,время фиксации вспомогательных параметров,,,,
298,08,14,51,9,93,Tf,время фиксации вспомогательных параметров,,,,
299,08,14,52,9,93,Tf,время фиксации вспомогательных параметров,,,,
300,08,14,53,9,93,Tf,время фиксации вспомогательных параметров,,,,
301,08,14,80,9,93,KUf1,КИ СК фазного U по фазе 1,,,,
302,08,14,81,9,93,KUf1,КИ СК фазного U по фазе 1,,,,
303,08,14,82,9,93,KUf2,КИ СК фазного U по фазе 2,,,,
304,08,14,83,9,93,KUf3,КИ СК фазного U по фазе 3,,,,
305,08,14,84,9,93,KUmf12,КИ СК межфазного U 12,,,,
306,08,14,85,9,93,KUmf12,КИ СК межфазного U 12,,,,
307,08,14,86,9,93,KUmf23,КИ СК межфазного U 23,,,,
308,08,14,87,9,93,KUmf31,КИ СК межфазного U 31,,,,
309,08,14,88,9,93,K2U,КН U по ОП,,,,
310,08,14,89,9,93,K2U,КН U по ОП,,,,
311,08,14,8a,9,93,K2U,КН U по ОП,,,,
312,08,14,8b,9,93,K2U,КН U по ОП,,,,
313,08,14,8c,9,93,K0U,КН U по НП,,,,
314,08,14,8d,9,93,K0U,КН U по НП,,,,
315,08,14,8e,9,93,K0U,КН U по НП,,,,
316,08,14,8f,9,93,K0U,КН U по НП,,,,
317,08,14,90,9,93,Fu,УЗ частоты,,,,
318,08,14,91,9,93,Fu,УЗ частоты,,,,
319,08,14,92,9,93,Fu,УЗ частоты,,,,
320,08,14,93,9,93,Fu,УЗ частоты,,,,
321,08,14,a0,9,93,Ufu1,УЗ фазного U по фазе 1,,,,
322,08,14,a1,9,93,Ufu1,УЗ фазного U по фазе 1,,,,
323,08,14,a2,9,93,Ufu2,УЗ фазного U по фазе 2,,,,
324,08,14,a3,9,93,Ufu3,УЗ фазного U по фазе 3,,,,
325,08,14,a4,9,93,Umfu1,УЗ межфазного U по фазе 1,,,,
326,08,14,a5,9,93,Umfu1,УЗ межфазного U по фазе 1,,,,
327,08,14,a6,9,93,Umfu2,УЗ межфазного U по фазе 2,,,,
328,08,14,a7,9,93,Umfu3,УЗ межфазного U по фазе 3,,,,
329,08,14,a8,9,93,U1(1)u,УЗ U ПП,,,,
330,08,14,a9,9,93,U1(1)u,УЗ U ПП,,,,
331,08,14,aa,9,93,U1(1)u,УЗ U ПП,,,,
332,08,14,ab,9,93,U1(1)u,УЗ U ПП,,,,
333,08,14,b0,9,93,KUfu1,УЗ КИ СК фазного U по фазе 1,,,,
334,08,14,b1,9,93,KUfu1,УЗ КИ СК фазного U по фазе 1,,,,
335,08,14,b2,9,93,KUfu2,УЗ КИ СК фазного U по фазе 2,,,,
336,08,14,b3,9,93,KUfu3,УЗ КИ СК фазного U по фазе 3,,,,
337,08,14,b4,9,93,KUmfu12,УЗ КИ СК межфазного U 12,,,,
338,08,14,b5,9,93,KUmfu12,УЗ КИ СК межфазного U 12,,,,
339,08,14,b6,9,93,KUmfu23,УЗ КИ СК межфазного U 23,,,,
340,08,14,b7,9,93,KUmfu31,УЗ КИ СК межфазного U 31,,,,
341,08,14,b8,9,93,К2Uu,УЗ КН U по ОП,,,,
342,08,14,b9,9,93,К2Uu,УЗ КН U по ОП,,,,
343,08,14,ba,9,93,К2Uu,УЗ КН U по ОП,,,,
344,08,14,bb,9,93,К2Uu,УЗ КН U по ОП,,,,
345,08,14,bc,9,93,K0Uu,УЗ КН U по НП,,,,
346,08,14,bd,9,93,K0Uu,УЗ КН U по НП,,,,
347,08,14,be,9,93,K0Uu,УЗ КН U по НП,,,,
348,08,14,bf,9,93,K0Uu,УЗ КН U по НП,,,,
349,08,14,e0,9,93,PpS,P активных потерь в линии электропередачи и силовом трансформаторе по сумме фаз,,,,
350,08,14,e1,9,93,Pp1,P активных потерь в линии электропередачи и силовом трансформаторе по фазе 1,,,,
351,08,14,e2,9,93,Pp2,P активных потерь в линии электропередачи и силовом трансформаторе по фазе 2,,,,
352,08,14,e3,9,93,Pp3,P активных потерь в линии электропередачи и силовом трансформаторе по фазе 3,,,,
353,08,14,e4,9,93,QpS,P реактивных потерь в линии электропередачи и силовом трансформаторе по сумме фаз,,,,
354,08,14,e5,9,93,Qp1,P реактивных потерь в линии электропередачи и силовом трансформаторе по фазе 1,,,,
355,08,14,e6,9,93,Qp2,P реактивных потерь в линии электропередачи и силовом трансформаторе по фазе 2,,,,
356,08,14,e7,9,93,Qp3,P реактивных потерь в линии электропередачи и силовом трансформаторе по фазе 3,,,,
357,08,14,f0,9,93,MSE-NOW, защелкнутая энергия от сброса до фиксации по сумме тарифов,,,,
358,08,14,f1,9,93,MSE-NOW, защелкнутая энергия от сброса до фиксации по сумме тарифов,,,,
359,08,14,f2,9,93,MSE-NOW, защелкнутая энергия от сброса до фиксации по сумме тарифов,,,,
360,08,14,f3,9,93,MSE-NOW, защелкнутая энергия от сброса до фиксации по сумме тарифов,,,,
361,08,14,f4,9,93,MSE-NOW, защелкнутая энергия от сброса до фиксации по сумме тарифов,,,,
362,08,14,f5,9,93,MSE-NOW, защелкнутая энергия от сброса до фиксации по сумме тарифов,,,,
363,08,14,f6,9,93,MSE-NOW, защелкнутая энергия от сброса до фиксации по сумме тарифов,,,,
364,08,14,f7,9,93,MSE-NOW, защелкнутая энергия от сброса до фиксации по сумме тарифов,,,,
365,08,14,f8,9,93,MSE-NOW, защелкнутая энергия от сброса до фиксации по сумме тарифов,,,,
366,08,14,f9,9,93,MSE-NOW, защелкнутая энергия от сброса до фиксации по сумме тарифов,,,,
367,08,14,fa,9,93,MSE-NOW, защелкнутая энергия от сброса до фиксации по сумме тарифов,,,,
368,08,14,fb,9,93,MSE-NOW, защелкнутая энергия от сброса до фиксации по сумме тарифов,,,,
369,08,14,fc,9,93,MSE-NOW, защелкнутая энергия от сброса до фиксации по сумме тарифов,,,,
370,08,14,fd,9,93,MSE-NOW, защелкнутая энергия от сброса до фиксации по сумме тарифов,,,,
371,08,14,fe,9,93,MSE-NOW, защелкнутая энергия от сброса до фиксации по сумме тарифов,,,,
372,08,14,ff,9,93,MSE-NOW, защелкнутая энергия от сброса до фиксации по сумме тарифов,,,,
373,08,16,00,9,95,PS,P активная по сумме фаз,,,,
374,08,16,01,9,95,P1,P активная по фазе 1,,,,
375,08,16,02,9,95,P2,P активная по фазе 2,,,,
376,08,16,03,9,95,P3,P активная по фазе 3,,,,
377,08,16,04,9,95,QS,P реактивная по сумме фаз,,,,
378,08,16,05,9,95,Q1,P реактивная по фазе 1,,,,
379,08,16,06,9,95,Q2,P реактивная по фазе 2,,,,
380,08,16,07,9,95,Q3,P реактивная по фазе 3,,,,
381,08,16,08,9,95,SS,P полная по сумме фаз,,,,
382,08,16,09,9,95,S1,P полная по фазе 1,,,,
383,08,16,0a,9,95,S2,P полная по фазе 2,,,,
384,08,16,0b,9,95,S3,P полная по фазе 3,,,,
385,08,16,10,9,95,Uf1,U фазное по фазе 1,,,,
386,08,16,11,9,95,Uf1,U фазное по фазе 1,,,,
387,08,16,12,9,95,Uf2,U фазное по фазе 2,,,,
388,08,16,13,9,95,Uf3,U фазное по фазе 3,,,,
389,08,16,14,9,95,Umf12,U межфазное 12,,,,
390,08,16,15,9,95,Umf12,U межфазное 12,,,,
391,08,16,16,9,95,Umf23,U межфазное 23,,,,
392,08,16,17,9,95,Umf31,U межфазное 31,,,,
393,08,16,18,9,95,U1(1),U ПП,,,,
394,08,16,19,9,95,U1(1),U ПП,,,,
395,08,16,1a,9,95,U1(1),U ПП,,,,
396,08,16,1b,9,95,U1(1),U ПП,,,,
397,08,16,1c,9,95,Ub,U встроенной батареи,,,,
398,08,16,1d,9,95,Ub,U встроенной батареи,,,,
399,08,16,1e,9,95,Ub,U встроенной батареи,,,,
400,08,16,1f,9,95,Ub,U встроенной батареи,,,,
401,08,16,20,9,95,I1,I по фазе 1,,,,
402,08,16,21,9,95,I1,I по фазе 1,,,,
403,08,16,22,9,95,I2,I по фазе 2,,,,
404,08,16,23,9,95,I3,I по фазе 3,,,,
405,08,16,24,9,95,Ki1,КИ СК I по фазе 1,,,,
406,08,16,25,9,95,Ki1,КИ СК I по фазе 1,,,,
407,08,16,26,9,95,Ki2,КИ СК I по фазе 2,,,,
408,08,16,27,9,95,Ki3,КИ СК I по фазе 3,,,,
409,08,16,28,9,95,K2i,КН I по ОП,,,,
410,08,16,29,9,95,K2i,КН I по ОП,,,,
411,08,16,2a,9,95,K2i,КН I по ОП,,,,
412,08,16,2b,9,95,K2i,КН I по ОП,,,,
413,08,16,2c,9,95,K0i,КН I по НП,,,,
414,08,16,2d,9,95,K0i,КН I по НП,,,,
415,08,16,2e,9,95,K0i,КН I по НП,,,,
416,08,16,2f,9,95,K0i,КН I по НП,,,,
417,08,16,30,9,95,CosFiS,К активной P по сумме фаз,,,,
418,08,16,31,9,95,CosFi1,К активной P по фазе 1,,,,
419,08,16,32,9,95,CosFi2,К активной P по фазе 2,,,,
420,08,16,33,9,95,CosFi3,К активной P по фазе 3,,,,
421,08,16,40,9,95,F,F сети,,,,
422,08,16,41,9,95,F,F сети,,,,
423,08,16,42,9,95,F,F сети,,,,
424,08,16,43,9,95,F,F сети,,,,
425,08,16,80,9,95,KUf1,КИ СК фазного U по фазе 1,,,,
426,08,16,81,9,95,KUf1,КИ СК фазного U по фазе 1,,,,
427,08,16,82,9,95,KUf2,КИ СК фазного U по фазе 2,,,,
428,08,16,83,9,95,KUf3,КИ СК фазного U по фазе 3,,,,
429,08,16,84,9,95,KUmf12,КИ СК межфазного U 12,,,,
430,08,16,85,9,95,KUmf12,КИ СК межфазного U 12,,,,
431,08,16,86,9,95,KUmf23,КИ СК межфазного U 23,,,,
432,08,16,87,9,95,KUmf31,КИ СК межфазного U 31,,,,
433,08,16,88,9,95,K2U,КН U по ОП,,,,
434,08,16,89,9,95,K2U,КН U по ОП,,,,
435,08,16,8a,9,95,K2U,КН U по ОП,,,,
436,08,16,8b,9,95,K2U,КН U по ОП,,,,
437,08,16,8c,9,95,K0U,КН U по НП,,,,
438,08,16,8d,9,95,K0U,КН U по НП,,,,
439,08,16,8e,9,95,K0U,КН U по НП,,,,
440,08,16,8f,9,95,K0U,КН U по НП,,,,
441,08,16,90,9,95,Fu,УЗ частоты,,,,
442,08,16,91,9,95,Fu,УЗ частоты,,,,
443,08,16,92,9,95,Fu,УЗ частоты,,,,
444,08,16,93,9,95,Fu,УЗ частоты,,,,
445,08,16,a0,9,95,Ufu1,УЗ фазного U по фазе 1,,,,
446,08,16,a1,9,95,Ufu1,УЗ фазного U по фазе 1,,,,
447,08,16,a2,9,95,Ufu2,УЗ фазного U по фазе 2,,,,
448,08,16,a3,9,95,Ufu3,УЗ фазного U по фазе 3,,,,
449,08,16,a4,9,95,Umfu1,УЗ межфазного U по фазе 1,,,,
450,08,16,a5,9,95,Umfu1,УЗ межфазного U по фазе 1,,,,
451,08,16,a6,9,95,Umfu2,УЗ межфазного U по фазе 2,,,,
452,08,16,a7,9,95,Umfu3,УЗ межфазного U по фазе 3,,,,
453,08,16,a8,9,95,U1(1)u,УЗ U ,,,,
454,08,16,a9,9,95,U1(1)u,УЗ U ПП,,,,
455,08,16,aa,9,95,U1(1)u,УЗ U ПП,,,,
456,08,16,ab,9,95,U1(1)u,УЗ U ПП,,,,
457,08,16,b0,9,95,KUfu1,УЗ КИ СК фазного U по фазе 1,,,,
458,08,16,b1,9,95,KUfu1,УЗ КИ СК фазного U по фазе 1,,,,
459,08,16,b2,9,95,KUfu2,УЗ КИ СК фазного U по фазе 2,,,,
460,08,16,b3,9,95,KUfu3,УЗ КИ СК фазного U по фазе 3,,,,
461,08,16,b4,9,95,KUmfu12,УЗ КИ СК межфазного U 12,,,,
462,08,16,b5,9,95,KUmfu12,УЗ КИ СК межфазного U 12,,,,
463,08,16,b6,9,95,KUmfu23,УЗ КИ СК межфазного U 23,,,,
464,08,16,b7,9,95,KUmfu31,УЗ КИ СК межфазного U 31,,,,
465,08,16,b8,9,95,К2Uu,УЗ КН U по ОП,,,,
466,08,16,b9,9,95,К2Uu,УЗ КН U по ОП,,,,
467,08,16,ba,9,95,К2Uu,УЗ КН U по ОП,,,,
468,08,16,bb,9,95,К2Uu,УЗ КН U по ОП,,,,
469,08,16,bc,9,95,K0Uu,УЗ КН U по НП,,,,
470,08,16,bd,9,95,K0Uu,УЗ КН U по НП,,,,
471,08,16,be,9,95,K0Uu,УЗ КН U по НП,,,,
472,08,16,bf,9,95,K0Uu,УЗ КН U по НП,,,,
473,08,16,e0,9,95,PpS,P активных потерь в линии электропередачи и силовом трансформаторе по сумме фаз,,,,
474,08,16,e1,9,95,Pp1,P активных потерь в линии электропередачи и силовом трансформаторе по фазе 1,,,,
475,08,16,e2,9,95,Pp2,P активных потерь в линии электропередачи и силовом трансформаторе по фазе 2,,,,
476,08,16,e3,9,95,Pp3,P активных потерь в линии электропередачи и силовом трансформаторе по фазе 3,,,,
477,08,16,e4,9,95,QpS,P реактивных потерь в линии электропередачи и силовом трансформаторе по сумме фаз,,,,
478,08,16,e5,9,95,Qp1,P реактивных потерь в линии электропередачи и силовом трансформаторе по фазе 1,,,,
479,08,16,e6,9,95,Qp2,P реактивных потерь в линии электропередачи и силовом трансформаторе по фазе 2,,,,
480,08,16,e7,9,95,Qp3,P реактивных потерь в линии электропередачи и силовом трансформаторе по фазе 3,,,,
481,08,17,,9,96,,Rs485-T,,,,
482,08,17,00,9,96,,Rs485-T расширенно,,,,
483,08,17,01,9,96,,Rs485-1 расширенно,,,,
484,08,17,02,9,96,,Rs485-2 расширенно,,,,
485,08,18,00,9,97,,поиска адреса заголовка базового массива ПМ,,,,
486,08,18,01,9,97,,коррекции (синхронизации) времени,,,,
487,08,18,02,9,97,,фиксации данных ВРИ,,,,
488,08,18,03,9,97,,тестирования узлов и функций счётчика,,,,
489,08,18,04,9,97,,поиска адреса заголовка расширенного массива ПМ,,,,
490,08,24,,9,109,,идентификатор,0,32,s,ident


TABLE trf


TABLE osht


TABLE opas
opas.id,opas.tip,opas.ver_po,opas.zap
1,ПСЧ-4ТМ.05,32.00.13,08 05 00
2,ПСЧ-4ТМ.05,32.00.13,08 05 01
3,ПСЧ-4ТМ.05,32.00.13,08 09 00
4,ПСЧ-4ТМ.05,32.00.13,08 09 01
5,ПСЧ-4ТМ.05,32.00.13,08 09 02
6,СЭТ-4ТМ.03,02.36.30,08 05 00
7,СЭТ-4ТМ.03,02.36.30,08 05 01
8,СЭТ-4ТМ.03,02.36.30,08 09 00
9,СЭТ-4ТМ.03,02.36.30,08 09 01
10,СЭТ-4ТМ.03,02.36.30,08 09 02
11,ПСЧ-3ТМ.05,52.00.15,08 05 00
12,ПСЧ-3ТМ.05,52.00.15,08 05 01
13,ПСЧ-3ТМ.05,52.00.15,08 09 00
14,ПСЧ-3ТМ.05,52.00.15,08 09 01
15,ПСЧ-3ТМ.05,52.00.15,08 09 02
16,СЭТ-4ТМ.02,34.29.32,08 06 00
17,СЭТ-4ТМ.02,34.29.32,08 06 01
18,СЭТ-4ТМ.02,34.29.32,08 06 02
19,СЭТ-4ТМ.02,34.29.32,08 05 00
20,СЭТ-4ТМ.02,34.29.32,08 05 01
21,СЭТ-4ТМ.02,34.29.32,08 09 00
22,СЭТ-4ТМ.02,34.29.32,08 09 01
23,СЭТ-4ТМ.02,34.29.32,08 09 02
24,СЭТ-4ТМ.02,34.29.32,08 0c 00
25,СЭТ-4ТМ.02,34.29.32,08 0c 01
26,СЭТ-4ТМ.02,34.29.32,08 0c 02
27,СЭТ-4ТМ.02,34.29.32,08 17 00
28,СЭТ-4ТМ.02,34.29.32,08 17 01
29,СЭТ-4ТМ.02,34.29.32,08 17 02
30,СЭБ-1ТМ.02Д,09.00.06,08 02
31,СЭБ-1ТМ.02Д,09.00.06,08 06 00
32,СЭБ-1ТМ.02Д,09.00.06,08 06 01
33,СЭБ-1ТМ.02Д,09.00.06,08 06 02
34,СЭБ-1ТМ.02Д,09.00.06,08 0c 00
35,СЭБ-1ТМ.02Д,09.00.06,08 0c 01
36,СЭБ-1ТМ.02Д,09.00.06,08 0c 02
37,СЭБ-1ТМ.02Д,09.00.06,08 0f
38,СЭБ-1ТМ.02Д,09.00.06,08 10
39,СЭБ-1ТМ.02Д,09.00.06,08 22
40,СЭБ-1ТМ.02М,12.00.07,08 02
41,СЭБ-1ТМ.02М,12.00.07,08 06 00
42,СЭБ-1ТМ.02М,12.00.07,08 06 01
43,СЭБ-1ТМ.02М,12.00.07,08 06 02
44,СЭБ-1ТМ.02М,12.00.07,08 0c 00
45,СЭБ-1ТМ.02М,12.00.07,08 0c 01
46,СЭБ-1ТМ.02М,12.00.07,08 0c 02
47,СЭБ-1ТМ.02М,12.00.07,08 0f
48,СЭБ-1ТМ.02М,12.00.07,08 10
49,СЭБ-1ТМ.02М,12.00.07,08 22
50,СЭБ-1ТМ.01,00.02.52,08 05 00
51,СЭБ-1ТМ.01,00.02.52,08 05 01
52,СЭБ-1ТМ.01,00.02.52,08 09 00
53,СЭБ-1ТМ.01,00.02.52,08 09 01
54,СЭБ-1ТМ.01,00.02.52,08 09 02
55,СЭБ-1ТМ.02,00.03.12,08 06 00
56,СЭБ-1ТМ.02,00.03.12,08 06 01
57,СЭБ-1ТМ.02,00.03.12,08 06 02
58,СЭБ-1ТМ.02,00.03.12,08 05 00
59,СЭБ-1ТМ.02,00.03.12,08 05 01
60,СЭБ-1ТМ.02,00.03.12,08 09 02
61,СЭБ-1ТМ.02,00.03.12,08 0c 00
62,СЭБ-1ТМ.02,00.03.12,08 0c 01
63,СЭБ-1ТМ.02,00.03.12,08 0c 02
64,СЭТ-4ТМ.03,02.36.30,08 22
65,СЭТ-4ТМ.03,02.36.30,08 24
66,СЭТ-4ТМ.02,34.29.32,08 04 00
67,СЭТ-4ТМ.02,34.29.32,08 04 01
68,СЭТ-4ТМ.02,34.29.32,08 04 02
69,СЭБ-1ТМ.02Д,09.00.06,08 04 00
70,СЭБ-1ТМ.02Д,09.00.06,08 04 01
71,СЭБ-1ТМ.02Д,09.00.06,08 04 02
72,СЭБ-1ТМ.02М,12.00.07,08 04 00
73,СЭБ-1ТМ.02М,12.00.07,08 04 01
74,СЭБ-1ТМ.02М,12.00.07,08 04 02
75,СЭБ-1ТМ.02,00.03.12,08 04 00
76,СЭБ-1ТМ.02,00.03.12,08 04 01
77,СЭБ-1ТМ.02,00.03.12,08 04 02


TABLE opke


TABLE ojrn


TABLE ompf


TABLE oenr


TABLE opwr


TABLE opwa


TABLE owri


TABLE orqs
orqs.id,orqs.im,orqs.naim,orqs.lst,orqs.isx,orqs.lst_up
1,uAll08,ss,[01 %(W)s, 08 12, 08 03, 08 02, 08 06, 08 06 00, 08 06 01, 08 06 02, 08 00, 08 01, 08 04, 08 04 00, 08 04 01, 08 04 02, 08 05, 08 05 00, 08 05 01, 08 07, 08 08, 08 09, 08 09 00, 08 09 01, 08 09 02, 08 0b, 08 0c, 08 0c 00, 08 0c 01, 08 0c 02, 08 0e, 08 0d, 08 0f, 08 10, 08 17, 08 17 00, 08 17 01, 08 17 02, 08 22, 08 24],01 %(W)s # Открыть доступ к счётчику  
08 12 # Прочитать вариант исполнения счетчика  
08 03 # Прочитать параметры ПО (версия ПО)
08 02 # Прочитать коэффициенты трансформации (по U, по I, ед.измерения, текущий)
08 06 # Прочитать время интегрирования мощности (из массива ПМ1)
08 06 00 # Прочитать время интегрирования мощности (из массива ПМ1 расширенно)
08 06 01 # Прочитать время интегрирования мощности (из массива ПМ2 расширенно)
08 06 02 # Прочитать время интегрирования мощности (из массива ПМ3 расширенно)
08 00 # Прочитать параметры выпуска (серийный номер, дата выпуска)
08 01 # Прочитать температуру внутри счётчика (температура)
08 04 # Прочитать параметры среза (время начала из массива ПМ1, дата начала из массива ПМ1, адрес из массива ПМ1)
08 04 00 # Прочитать параметры среза (время начала из массива ПМ1, дата начала из массива ПМ1, адрес из массива ПМ1)
08 04 01 # Прочитать параметры среза (время начала из массива ПМ2, дата начала из массива ПМ2, адрес из массива ПМ2)
08 04 02 # Прочитать параметры среза (время начала из массива ПМ3, дата начала из массива ПМ3, адрес из массива ПМ3)
08 05 # Прочитать сетевой адрес (короткий)
08 05 00 # Прочитать сетевой адрес (короткий расширенно)
08 05 01 # Прочитать сетевой адрес (длинный расширенно)
08 07 # Прочитать параметры перехода на летнее время (час, месяц)
08 08 # Прочитать параметры перехода на зимнее время (час, месяц)
08 09 # Прочитать программируемые флаги (из массива ПФ0)
08 09 00 # Прочитать программируемые флаги (из массива ПФ0 расширенно)
08 09 01 # Прочитать программируемые флаги (из массива ПФ1 расширенно)
08 09 02 # Прочитать программируемые флаги (из массива ПФ2 расширенно)
08 0b # Прочитать наименование точки учета (наименование точки учёта)
08 0c # Прочитать текущие значения мощностей (для массива ПМ1)
08 0c 00 # Прочитать текущие значения мощностей (для массива ПМ1 расширенно)
08 0c 01 # Прочитать текущие значения мощностей (для массива ПМ2 расширенно)
08 0c 02 # Прочитать текущие значения мощностей (для массива ПМ3 расширенно)
08 0e # Прочитать указатель текущего тарифа (время, дата, номер тарифа)
08 0d # Прочитать энергию по ТТ от его включения до текущего момента 
08 0f # Прочитать частоту сети (частота сети)
08 10 # Прочитать мгновенную мощность в формате СЭТ-4ТМ.01 
08 17 # Прочитать множитель к таймауту ожидания окончания фрейма (Rs485-T)
08 17 00 # Прочитать множитель к таймауту ожидания окончания фрейма (Rs485-T расширенно)
08 17 01 # Прочитать множитель к таймауту ожидания окончания фрейма (Rs485-1 расширенно)
08 17 02 # Прочитать множитель к таймауту ожидания окончания фрейма (Rs485-2 расширенно)
08 22 # Прочитать число периодов усреднения для ВРИ  
08 24 # Прочитать описание счетчика  (идентификатор)
,orqs.lst_up.a930188da31b7aec.75416c6c30382e727173.rqs


TABLE orpt


TABLE oini


TABLE auth_user
auth_user.id,auth_user.first_name,auth_user.last_name,auth_user.email,auth_user.password,auth_user.registration_key,auth_user.reset_password_key,auth_user.registration_id
1,Anatoly,Belyakov,aabelyakov@mail.ru,sha512$864742b36d7e713a$c8181651292cdac99d60421f76c1063712846a66454b39300a0c0f6d4aade9537cf9913ae15cc16afd80271238c490f46a2f80eb6bdfa87df8daab49ea859503,,,
2,Alex,Ujuk,kbmps@mail.ru,sha512$a5c0f2c9d1fad2bd$31873a680e6a5ea29626591f5a8c5a476ac1af762c9e4a07d6b13d2a23f69d2fd5a3ff62ae123459dcf96108f3ac226121eac6667214930e0555040543392546,,,


TABLE auth_group
auth_group.id,auth_group.role,auth_group.description
1,admin,Администраторы приложения
2,user,Пользователи приложения


TABLE auth_membership
auth_membership.id,auth_membership.user_id,auth_membership.group_id
1,1,1
2,2,1


TABLE auth_permission


TABLE auth_event


TABLE auth_cas


END