krp.id,krp.obj_id,krp.snaim,krp.naim,krp.lim
1,1,Korp26,Корпус № 26,580.00
2,1,Korp33,Корпус № 33,20.00
3,1,Korp14,Корпус № 14,25.00
4,1,Korp24,Корпус № 24,8.00
5,1,Korp16,Корпус № 16,315.00
6,1,Korp01,Корпус № 01,75.00
7,1,Korp02,Корпус № 02,25.00
8,1,Korp03,Корпус № 03,50.00
9,1,Korp04,Корпус № 04,285.00
10,1,Korp35,Корпус № 35,30.00
11,1,Korp29,Корпус № 29,10.00
12,1,Other,"Прочие, не вошедшие в корпуса",30.00
